car 0.913557 0.0 0 0 0 448 513 448 513 213 246 213 246
car 0.986102 0.0 0 0 0 127 198 127 198 119 155 119 155
car 0.996377 0.0 0 0 0 388 464 388 464 101 137 101 137
car 0.927795 0.0 0 0 0 546 619 546 619 266 350 266 350
car 0.994037 0.0 0 0 0 0 65 0 65 214 245 214 245
car 0.998690 0.0 0 0 0 293 362 293 362 155 184 155 184
car 0.825786 0.0 0 0 0 602 638 602 638 105 140 105 140