0 0.640104 0.635185 0.055208 0.044444
0 0.446354 0.520370 0.062500 0.050000
0 0.468490 0.590278 0.045312 0.050926
0 0.160417 0.576852 0.066667 0.044444
1 0.461979 0.047222 0.027083 0.092593
0 0.628125 0.820833 0.039583 0.087963
