0 0.512500 0.045833 0.023958 0.078704
2 0.305990 0.520370 0.107813 0.064815
1 0.190104 0.531944 0.081250 0.050926
0 0.483854 0.855556 0.026042 0.088889
4 0.531510 0.494907 0.011979 0.041667
4 0.946354 0.476389 0.037500 0.023148
0 0.477604 0.074537 0.019792 0.089815
