0 0.480990 0.108333 0.026562 0.085185
0 0.502344 0.282870 0.023438 0.087963
0 0.619792 0.588889 0.045833 0.048148
0 0.594792 0.902778 0.033333 0.092593
0 0.122396 0.656944 0.060417 0.037963
0 0.205990 0.646759 0.059896 0.036111
0 0.747135 0.549537 0.050521 0.036111
1 0.811198 0.542593 0.063021 0.046296
3 0.814063 0.478704 0.066667 0.055556
